DESCRIPTOR "1000"
LGOROWLENGTH	58
LGOMCCHANNEL1	"InkName = 'Cyan'"
LGOMCCHANNEL2	"InkName = 'Magenta'"
LGOMCCHANNEL3	"InkName = 'Yellow'"
NumberOfStrips	30
KEYWORD	"SampleID"
KEYWORD	"SAMPLE_NAME"
NUMBER_OF_FIELDS	5
BEGIN_DATA_FORMAT
SampleID	SAMPLE_NAME	CMY_C	CMY_M	CMY_Y
END_DATA_FORMAT
NUMBER_OF_SETS	986
BEGIN_DATA
1	A1	0.000000	0.000000	0.000000	
2	A2	0.000000	0.000000	0.000000	
3	A3	0.000000	0.000000	0.000000	
4	A4	0.000000	0.000000	0.000000	
5	A5	100.000000	100.000000	100.000000	
6	A6	0.000000	100.000000	100.000000	
7	A7	100.000000	0.000000	100.000000	
8	A8	0.000000	0.000000	100.000000	
9	A9	100.000000	100.000000	0.000000	
10	A10	0.000000	100.000000	0.000000	
11	A11	100.000000	0.000000	0.000000	
12	A12	100.000000	41.338001	0.000000	
13	A13	55.742001	100.000000	100.000000	
14	A14	30.230003	60.562000	35.942001	
15	A15	77.071999	56.023998	100.000000	
16	A16	36.905998	56.027000	100.000000	
17	A17	37.716999	32.401001	100.000000	
18	B1	100.000000	32.346001	100.000000	
19	B2	7.140999	56.035000	100.000000	
20	B3	80.617004	49.869999	41.326000	
21	B4	37.970001	56.346001	0.000000	
22	B5	30.157997	100.000000	65.518005	
23	B6	26.887001	20.251999	0.000000	
24	B7	100.000000	12.032997	38.798000	
25	B8	28.050003	21.918999	43.006001	
26	B9	26.916000	0.000000	45.016998	
27	B10	28.778999	46.841000	49.624001	
28	B11	30.016998	37.464001	1.467003	
29	B12	100.000000	99.581642	61.043999	
30	B13	24.533997	75.305000	24.133003	
31	B14	26.886002	0.000000	10.799004	
32	B15	53.459999	56.011002	42.557999	
33	B16	39.049000	8.664001	0.000000	
34	B17	100.000000	55.036999	0.000000	
35	C1	40.363998	0.000000	0.000000	
36	C2	85.237999	34.698997	42.808998	
37	C3	100.000000	26.063004	0.000000	
38	C4	66.890999	59.893002	68.803001	
39	C5	38.417000	34.692001	33.786003	
40	C6	100.000000	100.000000	34.275002	
41	C7	53.466999	0.000000	59.618999	
42	C8	29.737000	0.000000	100.000000	
43	C9	42.397999	12.949997	39.153999	
44	C10	100.000000	79.705002	59.625000	
45	C11	68.413002	80.223999	100.000000	
46	C12	53.463001	0.000000	16.445000	
47	C13	51.332001	30.098999	16.532997	
48	C14	55.521000	56.009998	100.000000	
49	C15	50.870998	35.054001	45.703999	
50	C16	51.317001	30.098999	0.000000	
51	C17	57.877998	66.740005	37.007000	
52	D1	15.249001	59.911999	68.803001	
53	D2	57.089001	72.889000	0.000000	
54	D3	7.670998	50.443001	41.326000	
55	D4	52.827000	44.872002	0.000000	
56	D5	65.587006	87.320000	75.586998	
57	D6	23.042000	82.695999	100.000000	
58	D7	72.762001	55.924999	30.252998	
59	D8	0.000000	24.864998	45.702999	
60	D9	50.356998	23.738998	100.000000	
61	D10	58.327999	38.430000	38.799000	
62	D11	100.000000	37.250999	59.611000	
63	D12	5.385002	69.537003	32.176003	
64	D13	0.000000	21.669998	8.492996	
65	D14	60.852001	100.000000	61.153999	
66	D15	100.000000	27.106003	21.552002	
67	D16	41.080002	69.541000	90.943199	
68	D17	74.703003	97.712502	99.590027	
69	E1	66.791000	70.209000	24.660004	
70	E2	81.072998	30.098999	16.532997	
71	E3	15.075996	32.579002	8.494003	
72	E4	29.123001	100.000000	0.000000	
73	E5	93.059898	47.244999	26.925003	
74	E6	7.527000	19.332001	59.598999	
75	E7	78.662003	38.431999	76.184998	
76	E8	52.520000	17.842003	31.459000	
77	E9	33.805000	53.034000	43.120998	
78	E10	0.000000	40.486000	0.000000	
79	E11	60.061001	95.929298	42.442001	
80	E12	0.000000	72.388000	59.276001	
81	E13	50.419998	0.000000	38.854000	
82	E14	63.341999	60.056999	57.708000	
83	E15	50.403000	0.000000	100.000000	
84	E16	38.477001	23.383003	60.181999	
85	E17	0.000000	8.543999	21.858002	
86	F1	39.271000	100.000000	98.383202	
87	F2	67.225998	20.593002	53.932999	
88	F3	3.564003	34.530998	100.000000	
89	F4	63.549000	23.069000	44.661999	
90	F5	32.390999	18.459999	22.492996	
91	F6	55.618000	17.845001	0.000000	
92	F7	20.077003	31.194000	41.320999	
93	F8	61.014999	25.607002	27.875999	
94	F9	60.632000	50.750999	41.326000	
95	F10	1.188004	91.115097	20.808998	
96	F11	77.556999	71.951004	100.000000	
97	F12	50.832001	100.000000	23.295998	
98	F13	100.000000	0.000000	49.103001	
99	F14	61.917999	12.949997	60.185001	
100	F15	59.388000	40.666000	99.846710	
101	F16	72.507004	78.350998	66.252998	
102	F17	100.000000	63.573002	81.738998	
103	G1	50.852001	90.048500	0.000000	
104	G2	97.562202	76.723999	77.760002	
105	G3	24.462997	13.056999	92.923897	
106	G4	66.177002	16.987999	100.000000	
107	G5	72.500999	79.372002	83.629997	
108	G6	100.000000	73.607002	41.341999	
109	G7	71.059998	62.922001	0.000000	
110	G8	20.077003	59.180000	41.328999	
111	G9	56.111000	26.623001	21.144997	
112	G10	42.998001	50.330002	69.445000	
113	G11	2.010002	36.613998	42.118999	
114	G12	67.673996	72.533005	100.000000	
115	G13	100.000000	11.611000	78.975998	
116	G14	46.124001	12.189003	100.000000	
117	G15	66.255997	12.037003	18.350998	
118	G16	100.000000	20.967003	35.149002	
119	G17	2.358002	22.427002	22.768997	
120	H1	31.768997	41.216999	93.903297	
121	H2	55.425999	36.209999	59.935001	
122	H3	18.129997	66.138000	0.000000	
123	H4	57.089001	25.489998	0.000000	
124	H5	55.556999	52.727001	19.359001	
125	H6	47.769001	59.896000	68.803001	
126	H7	73.395004	82.084999	59.306999	
127	H8	5.925003	42.230999	18.165001	
128	H9	15.008003	24.204002	48.104000	
129	H10	0.000000	16.959999	100.000000	
130	H11	68.841003	8.126999	0.000000	
131	H12	39.112000	40.823002	18.157997	
132	H13	22.832001	46.865002	61.104000	
133	H14	44.948002	82.961998	63.923000	
134	H15	100.000000	57.488998	61.287998	
135	H16	59.672001	40.492001	18.408997	
136	H17	75.115997	100.000000	18.774002	
137	I1	71.264000	50.334000	63.708000	
138	I2	11.586998	15.218002	74.168999	
139	I3	59.255001	83.763000	100.000000	
140	I4	29.361000	81.497002	42.383999	
141	I5	58.074001	26.953003	75.500000	
142	I6	49.577999	64.997002	45.705002	
143	I7	37.735001	69.121002	66.748001	
144	I8	100.000000	25.350998	27.875999	
145	I9	31.167999	56.926998	17.494003	
146	I10	59.884998	76.223000	18.300003	
147	I11	20.440002	27.827003	20.975998	
148	I12	100.000000	41.792999	10.763000	
149	I13	100.000000	1.278999	10.799004	
150	I14	99.897308	84.458000	100.000000	
151	I15	0.000000	100.000000	48.761002	
152	I16	50.112000	60.507000	58.651001	
153	I17	20.513000	10.021004	59.972000	
154	J1	80.352997	81.683998	98.439598	
155	J2	93.708099	73.382996	63.970001	
156	J3	33.757004	90.361397	77.322998	
157	J4	55.640999	40.751999	4.133003	
158	J5	26.559998	13.163002	1.486000	
159	J6	26.752998	68.589996	100.000000	
160	J7	38.779999	37.258999	66.990997	
161	J8	77.954002	88.214996	83.645996	
162	J9	3.669998	68.862000	100.000000	
163	J10	34.091003	32.264999	40.681999	
164	J11	0.000000	7.677002	0.000000	
165	J12	32.380997	27.869003	19.263000	
166	J13	100.000000	89.383003	78.033005	
167	J14	23.288002	56.035000	100.000000	
168	J15	80.073997	89.259003	44.157001	
169	J16	61.840000	32.948997	48.386002	
170	J17	41.564999	27.092003	24.878998	
171	K1	64.837006	25.652000	91.380501	
172	K2	79.613998	41.401001	100.000000	
173	K3	14.364998	5.967003	18.662003	
174	K4	54.438000	56.943001	61.287998	
175	K5	47.133999	100.000000	60.898998	
176	K6	45.248001	89.321999	44.157001	
177	K7	27.329002	100.000000	20.171997	
178	K8	84.003998	61.999001	45.500000	
179	K9	58.827999	12.949997	40.139999	
180	K10	100.000000	76.341995	100.000000	
181	K11	72.138000	67.444000	55.605000	
182	K12	100.000000	80.556999	41.324001	
183	K13	16.249001	35.327003	66.688995	
184	K14	39.646000	20.960999	38.806000	
185	K15	100.000000	59.000999	17.495003	
186	K16	53.081001	68.862999	100.000000	
187	K17	70.778000	66.316002	40.175999	
188	L1	52.216999	99.885223	13.247002	
189	L2	62.723000	38.887001	45.027000	
190	L3	49.647999	74.050003	44.523998	
191	L4	100.000000	65.872002	100.000000	
192	L5	72.507996	27.955002	42.198002	
193	L6	100.000000	95.452202	41.331001	
194	L7	68.665001	35.337997	63.054001	
195	L8	38.613998	43.039001	34.267998	
196	L9	46.522999	56.229000	14.774002	
197	L10	39.415001	79.886002	99.055313	
198	L11	71.234001	74.752998	40.131001	
199	L12	63.846001	57.908001	9.917999	
200	L13	100.000000	41.756001	41.368999	
201	L14	41.279999	0.000000	49.167999	
202	L15	100.000000	53.118000	100.000000	
203	L16	74.492996	100.000000	61.160999	
204	L17	12.781998	60.054001	57.708000	
205	M1	17.045998	15.556999	49.078999	
206	M2	74.433998	8.628998	100.000000	
207	M3	83.083000	82.969002	2.782997	
208	M4	5.973000	86.518997	78.755997	
209	M5	65.274002	56.042999	75.048004	
210	M6	15.028000	42.832001	38.805000	
211	M7	58.115002	0.000000	25.010002	
212	M8	6.378998	12.185997	100.000000	
213	M9	27.523003	12.334999	40.740002	
214	M10	100.000000	0.000000	36.270000	
215	M11	0.000000	59.963001	2.077003	
216	M12	33.889000	72.108002	76.181000	
217	M13	56.933998	45.034000	76.398003	
218	M14	30.837997	62.938999	0.000000	
219	M15	12.413002	82.050003	59.306999	
220	M16	100.000000	66.438995	62.080002	
221	M17	0.000000	40.075001	63.604000	
222	N1	61.847000	50.050999	48.424000	
223	N2	5.962997	35.320000	63.054001	
224	N3	33.848999	49.849998	21.779999	
225	N4	51.830002	0.000000	4.422997	
226	N5	53.738998	55.825001	0.000000	
227	N6	37.419998	61.723999	68.802002	
228	N7	73.361000	44.869999	0.000000	
229	N8	64.406998	41.244999	9.816002	
230	N9	50.199001	23.069000	44.661999	
231	N10	17.445999	29.565002	100.000000	
232	N11	68.858002	3.376999	0.000000	
233	N12	61.963001	81.209999	42.383999	
234	N13	100.000000	17.987000	4.158997	
235	N14	73.209999	57.747002	61.286999	
236	N15	42.675999	52.660999	83.487999	
237	N16	55.841999	76.137001	78.763000	
238	N17	22.452003	0.000000	63.391998	
239	O1	14.733002	0.000000	0.000000	
240	O2	35.223000	30.890999	0.000000	
241	O3	0.000000	61.299000	72.206001	
242	O4	100.000000	19.959000	0.000000	
243	O5	90.989799	100.000000	79.150002	
244	O6	36.277000	61.014999	44.643002	
245	O7	18.904999	16.977997	100.000000	
246	O8	70.520004	31.084000	0.000000	
247	O9	16.621002	100.000000	37.355999	
248	O10	100.000000	40.389999	32.940002	
249	O11	80.552002	0.000000	59.823002	
250	O12	18.371002	42.695999	88.048996	
251	O13	55.841999	86.512001	78.755997	
252	O14	0.000000	0.000000	43.169998	
253	O15	39.125000	18.718002	0.000000	
254	O16	66.005005	100.000000	100.000000	
255	O17	0.000000	59.422001	37.345001	
256	P1	42.969002	99.897560	34.275002	
257	P2	75.872002	88.685997	100.000000	
258	P3	45.646999	40.584000	57.006001	
259	P4	100.000000	77.126999	22.445000	
260	P5	37.205002	69.063004	18.567001	
261	P6	84.153999	59.897999	68.803001	
262	P7	73.541000	64.998001	45.705002	
263	P8	83.686996	68.598999	100.000000	
264	P9	68.041000	90.902496	68.929001	
265	P10	22.987000	76.234001	48.554001	
266	P11	97.204300	42.827999	27.842003	
267	P12	12.501999	100.000000	47.770000	
268	P13	52.587002	52.265999	45.981998	
269	P14	27.556999	29.026001	71.139999	
270	P15	1.204002	100.000000	34.414001	
271	P16	62.723000	0.000000	45.016998	
272	P17	100.000000	52.179001	77.882996	
273	Q1	100.000000	23.181999	64.721001	
274	Q2	72.692001	53.015999	78.692001	
275	Q3	100.000000	67.917999	41.314999	
276	Q4	67.472000	37.160000	27.704002	
277	Q5	94.466103	24.208000	48.104000	
278	Q6	5.612999	60.709000	17.495003	
279	Q7	35.261002	64.313004	100.000000	
280	Q8	17.563004	48.792000	16.855003	
281	Q9	66.281998	34.573997	14.773003	
282	Q10	70.845001	38.473999	35.708000	
283	Q11	74.722000	41.908001	52.500999	
284	Q12	69.726997	100.000000	37.355999	
285	Q13	18.342003	76.289001	74.641998	
286	Q14	42.165001	9.195000	14.771004	
287	Q15	14.554001	51.384998	0.000000	
288	Q16	38.171001	99.694542	62.877998	
289	Q17	100.000000	0.000000	18.975998	
290	R1	32.905998	47.138000	29.712997	
291	R2	53.277000	69.165001	58.835999	
292	R3	16.185997	37.977001	23.231003	
293	R4	15.237000	67.895996	100.000000	
294	R5	19.321999	18.041000	19.873001	
295	R6	41.356998	32.811996	16.987999	
296	R7	10.790001	19.567001	19.149002	
297	R8	36.215000	72.834999	38.509998	
298	R9	14.137001	57.888000	27.058998	
299	R10	75.304001	72.101997	75.296997	
300	R11	35.441002	42.632000	42.395000	
301	R12	48.636002	42.692001	88.048996	
302	R13	19.249001	100.000000	74.236000	
303	R14	28.228996	100.000000	37.342999	
304	R15	71.040001	44.848000	88.050003	
305	R16	100.000000	58.900002	35.942001	
306	R17	41.403999	0.000000	10.862000	
307	S1	84.423996	98.131798	100.000000	
308	S2	82.711998	76.081001	72.846001	
309	S3	0.649002	59.014000	47.115002	
310	S4	13.186996	14.906998	60.185001	
311	S5	67.505997	58.800999	98.682800	
312	S6	83.143997	83.803001	66.378998	
313	S7	10.789001	84.431000	98.513901	
314	S8	43.359001	45.153000	100.000000	
315	S9	37.952999	25.180000	74.323997	
316	S10	69.158997	76.260002	87.017998	
317	S11	100.000000	59.966000	0.000000	
318	S12	23.836998	57.741001	60.541000	
319	S13	34.135002	38.537998	52.589001	
320	S14	76.550003	29.023003	75.598999	
321	S15	100.000000	17.214996	14.767998	
322	S16	80.788002	96.024399	82.015999	
323	S17	9.877998	29.030998	75.824997	
324	T1	49.286999	55.785999	32.856003	
325	T2	58.701000	10.056000	10.807999	
326	T3	86.453003	78.568001	100.000000	
327	T4	29.418999	73.324997	61.160999	
328	T5	0.000000	57.021999	59.300999	
329	T6	4.179001	0.000000	63.721001	
330	T7	67.565002	85.428001	100.000000	
331	T8	67.408005	69.944000	63.919998	
332	T9	32.875000	84.263000	98.294899	
333	T10	43.362999	27.920998	100.000000	
334	T11	100.000000	20.226997	74.818001	
335	T12	11.166000	77.294998	49.125000	
336	T13	93.914597	62.941002	63.122002	
337	T14	16.192001	50.395000	60.862999	
338	T15	34.964996	38.537998	43.144001	
339	T16	50.390999	22.366997	56.445000	
340	T17	99.423157	12.675003	50.002998	
341	U1	92.345299	100.000000	70.320999	
342	U2	0.515999	39.313999	78.778999	
343	U3	51.231998	50.377998	60.917000	
344	U4	20.013000	0.000000	20.487999	
345	U5	15.266998	37.456001	1.467003	
346	U6	48.945000	80.242004	98.769402	
347	U7	24.056999	39.264999	59.610001	
348	U8	93.166199	73.011002	82.831001	
349	U9	36.618999	71.959999	100.000000	
350	U10	47.115002	37.719002	42.118999	
351	U11	11.276001	19.532997	2.953003	
352	U12	0.000000	35.351997	22.432999	
353	U13	38.027000	14.858002	63.425999	
354	U14	36.338001	65.134995	55.605999	
355	U15	19.440002	24.175003	40.139000	
356	U16	68.132996	92.269402	2.081001	
357	U17	32.057999	3.359001	37.799000	
358	V1	34.957001	0.000000	59.804001	
359	V2	61.355999	42.828999	27.842003	
360	V3	24.984001	41.902000	52.500999	
361	V4	71.591003	40.383999	42.396999	
362	V5	49.007000	63.991001	0.000000	
363	V6	67.220001	20.124001	74.854004	
364	V7	28.007004	50.741001	2.924004	
365	V8	25.374001	0.000000	3.025002	
366	V9	68.137001	55.680000	37.569000	
367	V10	28.695000	37.341000	70.836998	
368	V11	100.000000	36.936001	0.000000	
369	V12	58.692001	91.721901	50.557999	
370	V13	0.000000	18.489998	48.300999	
371	V14	3.953003	16.978996	23.501999	
372	V15	0.166000	7.141998	35.162003	
373	V16	72.502998	81.389000	42.290001	
374	V17	70.818001	40.751999	4.133003	
375	W1	80.551003	43.745998	61.287998	
376	W2	57.546001	64.729996	100.000000	
377	W3	44.601002	63.332001	78.806999	
378	W4	5.749001	0.000000	24.202003	
379	W5	70.061005	13.872002	34.246002	
380	W6	11.848999	14.424004	22.407997	
381	W7	23.089996	37.154999	27.704002	
382	W8	66.326996	65.171005	100.000000	
383	W9	48.688999	14.926003	57.390999	
384	W10	85.004997	9.174004	61.186001	
385	W11	64.934998	22.782997	30.690002	
386	W12	11.887001	34.762001	40.202000	
387	W13	37.169998	0.000000	22.237000	
388	W14	36.484001	14.679001	100.000000	
389	W15	70.244003	11.079002	43.002998	
390	W16	64.848999	0.000000	100.000000	
391	W17	37.616001	21.737000	45.702999	
392	X1	67.005005	17.835999	29.931999	
393	X2	72.625999	64.712006	27.897003	
394	X3	59.678001	63.104000	77.512001	
395	X4	12.542000	86.806999	18.161003	
396	X5	31.852997	16.803001	27.874001	
397	X6	47.005001	100.000000	77.546997	
398	X7	62.582001	65.522003	45.500000	
399	X8	60.905998	43.536999	37.282001	
400	X9	62.873001	49.222000	96.540298	
401	X10	5.456001	1.737000	8.077003	
402	X11	17.864998	30.944000	0.000000	
403	X12	45.971001	68.591003	100.000000	
404	X13	100.000000	54.637001	20.445999	
405	X14	39.213001	72.794998	30.882004	
406	X15	64.264000	35.144997	100.000000	
407	X16	25.992996	69.966003	41.458000	
408	X17	53.358002	72.860001	82.768997	
409	Y1	15.644997	56.188000	13.989998	
410	Y2	29.723999	65.149002	78.179001	
411	Y3	79.501999	51.066002	37.285999	
412	Y4	60.914001	79.091003	75.112999	
413	Y5	70.203003	96.671700	65.518005	
414	Y6	76.014999	30.041000	11.674004	
415	Y7	12.804001	87.237000	75.586998	
416	Y8	53.220001	47.249001	26.925003	
417	Y9	37.764000	12.516998	22.980003	
418	Y10	18.473999	67.002998	82.528999	
419	Y11	68.153000	52.726002	19.359001	
420	Y12	100.000000	1.595001	75.515999	
421	Y13	57.040001	14.391998	1.485001	
422	Y14	67.201996	43.222000	74.679001	
423	Y15	37.029999	27.962997	42.198002	
424	Y16	27.077003	50.192001	75.044998	
425	Y17	68.375999	55.803001	13.068001	
426	Z1	30.210999	76.392998	17.781998	
427	Z2	100.000000	82.029999	16.468002	
428	Z3	46.882000	56.390999	48.162998	
429	Z4	3.252998	18.671997	12.566002	
430	Z5	17.543999	58.647999	93.748596	
431	Z6	63.254002	56.997002	59.300999	
432	Z7	100.000000	70.620003	0.000000	
433	Z8	99.893341	63.203999	28.278999	
434	Z9	0.000000	22.601997	34.246002	
435	Z10	20.619003	0.000000	28.553001	
436	Z11	7.707001	100.000000	64.856995	
437	Z12	60.032001	59.022999	80.150002	
438	Z13	39.520000	48.970001	0.000000	
439	Z14	47.734001	47.431000	48.068001	
440	Z15	63.536999	76.815002	59.632999	
441	Z16	77.384003	62.506001	76.513000	
442	Z17	40.191002	75.692001	4.427002	
443	1A1	61.988998	87.143997	19.795998	
444	1A2	67.216995	50.215000	69.227997	
445	1A3	54.161999	8.763000	100.000000	
446	1A4	73.729996	63.242001	56.512001	
447	1A5	64.666000	32.268997	40.681999	
448	1A6	76.350998	76.331001	100.000000	
449	1A7	60.903999	79.033005	100.000000	
450	1A8	15.164001	0.000000	100.000000	
451	1A9	100.000000	23.160004	100.000000	
452	1A10	46.476002	39.304001	32.940002	
453	1A11	61.146000	76.245003	49.929001	
454	1A12	21.617996	38.478001	35.708000	
455	1A13	25.264999	72.204002	65.636002	
456	1A14	31.491997	78.400002	83.323997	
457	1A15	77.688004	26.134003	100.000000	
458	1A16	79.665001	37.721001	42.118999	
459	1A17	99.899132	75.598999	70.828003	
460	1B1	42.969002	9.282997	61.227001	
461	1B2	68.723000	1.747002	8.077003	
462	1B3	56.056000	67.028000	85.081001	
463	1B4	85.303001	0.000000	28.553001	
464	1B5	68.669998	39.303001	24.571999	
465	1B6	94.798401	90.503700	100.000000	
466	1B7	93.183701	78.543999	64.839005	
467	1B8	75.890999	32.535004	31.329002	
468	1B9	39.884998	79.770996	76.098000	
469	1B10	39.216000	42.292999	26.927002	
470	1B11	100.000000	12.857002	22.862000	
471	1B12	49.717999	79.356003	83.629997	
472	1B13	76.875999	66.188995	13.130997	
473	1B14	99.638481	83.239998	76.058998	
474	1B15	100.000000	51.160999	1.480003	
475	1B16	67.182999	43.222000	61.105999	
476	1B17	11.334999	0.000000	37.021999	
477	1C1	16.780998	54.730000	75.046997	
478	1C2	68.367004	55.801998	0.000000	
479	1C3	28.612000	85.910004	68.050003	
480	1C4	100.000000	38.862999	13.344002	
481	1C5	36.478001	70.617996	49.571999	
482	1C6	65.957001	17.258003	8.641998	
483	1C7	51.993000	74.761002	98.687500	
484	1C8	38.005001	58.721001	56.143002	
485	1C9	9.278000	75.966003	4.030998	
486	1C10	35.681000	60.917000	30.140999	
487	1C11	0.000000	16.136002	34.288002	
488	1C12	5.436996	7.985001	27.872002	
489	1C13	24.015999	96.402199	48.229000	
490	1C14	40.830002	58.648998	87.309998	
491	1C15	12.966003	31.999001	47.352001	
492	1C16	26.672997	31.359001	18.751999	
493	1C17	100.000000	60.266998	49.567001	
494	1D1	66.290001	90.501404	100.000000	
495	1D2	83.746002	100.000000	65.497002	
496	1D3	60.799999	79.388000	31.078003	
497	1D4	39.825001	87.048996	75.520996	
498	1D5	39.216000	47.513000	26.925003	
499	1D6	100.000000	17.947998	22.492996	
500	1D7	13.764999	79.390999	83.629997	
501	1D8	76.113998	78.614998	19.366997	
502	1D9	100.000000	44.401001	75.499001	
503	1D10	99.892540	30.821999	1.489998	
504	1D11	47.535000	39.203999	63.291000	
505	1D12	14.505997	65.186005	48.952000	
506	1D13	27.078003	56.044998	73.850998	
507	1D14	56.146000	60.421001	56.250999	
508	1D15	28.606003	85.910004	79.150002	
509	1D16	99.894829	38.859001	18.567001	
510	1D17	45.109001	70.468002	48.043999	
511	1E1	61.462002	7.367996	19.167999	
512	1E2	45.173000	58.792000	98.830200	
513	1E3	42.509998	57.032001	59.300999	
514	1E4	74.234001	75.703003	1.440002	
515	1E5	77.570000	66.296005	65.731003	
516	1E6	20.540001	13.890999	9.524002	
517	1E7	17.667000	23.555000	27.875999	
518	1E8	24.010002	96.401802	56.278999	
519	1E9	54.333000	49.618000	83.526001	
520	1E10	15.014000	32.261002	40.681999	
521	1E11	29.508003	39.291000	12.829002	
522	1E12	100.000000	69.696999	25.297997	
523	1E13	73.655998	49.894001	26.696999	
524	1E14	64.100998	66.703995	67.229996	
525	1E15	36.977001	0.000000	73.196999	
526	1E16	13.602997	25.883003	43.000000	
527	1E17	30.320000	14.442001	75.026001	
528	1F1	0.515999	24.858002	93.752998	
529	1F2	75.835999	29.389999	33.658997	
530	1F3	46.331001	22.009003	63.396000	
531	1F4	61.339001	58.431000	41.328999	
532	1F5	17.543999	42.773998	20.114998	
533	1F6	31.857002	25.344002	64.832001	
534	1F7	55.254002	88.306999	64.535995	
535	1F8	53.898998	61.941002	45.500000	
536	1F9	55.645000	48.616001	34.265999	
537	1F10	67.557999	12.189003	73.177002	
538	1F11	2.397003	30.158997	9.813004	
539	1F12	0.202003	30.713997	0.000000	
540	1F13	12.802002	45.373001	100.000000	
541	1F14	100.000000	48.799999	55.338001	
542	1F15	20.383003	50.021999	38.790001	
543	1F16	67.498001	41.188000	95.775597	
544	1F17	0.000000	12.592003	63.964001	
545	1G1	43.027000	70.219002	81.542999	
546	1G2	16.824997	15.361000	3.041000	
547	1G3	29.719002	65.149002	100.000000	
548	1G4	76.612000	43.536999	37.282001	
549	1G5	86.383003	47.250999	14.723000	
550	1G6	45.938000	63.493000	28.278999	
551	1G7	75.867996	14.406998	86.635002	
552	1G8	21.725998	32.578003	33.887001	
553	1G9	76.658005	58.145000	55.993000	
554	1G10	44.330002	78.609001	19.366997	
555	1G11	99.554092	85.101997	57.816002	
556	1G12	73.423004	54.637001	45.504002	
557	1G13	47.397999	28.998001	33.888000	
558	1G14	25.641998	41.848999	0.000000	
559	1G15	41.773998	76.834999	65.632004	
560	1G16	68.719002	19.582001	16.450996	
561	1G17	44.895000	61.051998	35.216003	
562	1H1	62.759998	49.415001	57.688000	
563	1H2	39.353001	93.710800	23.278000	
564	1H3	61.328999	74.474998	81.042000	
565	1H4	51.442001	40.830002	14.797997	
566	1H5	40.974998	41.796001	10.763000	
567	1H6	75.266998	27.869003	19.263000	
568	1H7	35.353996	88.001999	41.678001	
569	1H8	41.840000	58.419998	10.627998	
570	1H9	100.000000	71.589996	76.181000	
571	1H10	1.446999	78.194000	41.921001	
572	1H11	100.000000	94.547798	88.042000	
573	1H12	72.357002	100.000000	78.720001	
574	1H13	47.965000	85.344002	37.362000	
575	1H14	100.000000	87.926003	88.028000	
576	1H15	81.949997	51.049999	50.009998	
577	1H16	76.288002	77.115997	49.044998	
578	1H17	36.808998	35.336998	23.853996	
579	1I1	100.000000	90.958496	50.556999	
580	1I2	49.493999	12.113998	75.972000	
581	1I3	66.251999	67.695999	75.537003	
582	1I4	53.745998	1.263000	72.925003	
583	1I5	81.091995	59.028000	80.150002	
584	1I6	38.803001	39.830002	35.708000	
585	1I7	88.455002	93.660698	83.621002	
586	1I8	51.312000	9.833000	27.873001	
587	1I9	77.671997	71.119003	63.174000	
588	1I10	48.179001	69.076004	25.647003	
589	1I11	59.868000	80.350998	0.000000	
590	1I12	19.050003	57.004002	45.504002	
591	1I13	10.525002	47.186001	77.809998	
592	1I14	70.285995	95.794502	87.563004	
593	1I15	0.000000	59.104000	100.000000	
594	1I16	70.038002	55.824001	42.557999	
595	1I17	73.583000	34.127998	53.444000	
596	1J1	36.904999	27.126999	21.552002	
597	1J2	70.681000	21.248001	38.827000	
598	1J3	100.000000	38.976002	88.602997	
599	1J4	19.749001	11.567001	18.351997	
600	1J5	36.339001	54.176998	61.289001	
601	1J6	31.094002	100.000000	48.777000	
602	1J7	10.834999	3.427002	82.018997	
603	1J8	40.097000	51.895000	17.492996	
604	1J9	60.584999	53.116001	100.000000	
605	1J10	30.752998	79.610001	58.792000	
606	1J11	82.216995	52.462002	83.487999	
607	1J12	1.765999	20.294998	0.000000	
608	1J13	53.568001	100.000000	33.432999	
609	1J14	51.529999	49.388000	0.000000	
610	1J15	28.830002	44.841999	86.188004	
611	1J16	40.320999	15.485001	14.766998	
612	1J17	100.000000	58.757999	43.155998	
613	1K1	49.973999	27.416000	40.139000	
614	1K2	62.153999	45.338001	35.156998	
615	1K3	23.319000	11.042999	29.710999	
616	1K4	31.853996	35.203003	100.000000	
617	1K5	94.527702	27.966003	57.980000	
618	1K6	24.379997	51.123001	51.653999	
619	1K7	24.676003	26.127998	100.000000	
620	1K8	67.530998	51.162998	0.652000	
621	1K9	33.054001	31.470001	47.352001	
622	1K10	83.637001	85.917999	83.764999	
623	1K11	65.790001	0.000000	73.124001	
624	1K12	39.291000	51.186001	38.789001	
625	1K13	17.727997	76.871002	66.139000	
626	1K14	36.979000	51.044998	46.965000	
627	1K15	62.474998	59.108002	100.000000	
628	1K16	80.557999	75.959000	85.270004	
629	1K17	13.538002	36.291000	100.000000	
630	1L1	12.806000	61.313999	35.752998	
631	1L2	100.000000	46.410999	42.563999	
632	1L3	72.964005	34.152000	45.703999	
633	1L4	76.821999	6.133003	21.552002	
634	1L5	12.848000	21.250999	100.000000	
635	1L6	89.640999	59.910999	100.000000	
636	1L7	7.935997	31.421997	23.853996	
637	1L8	31.413002	37.118000	59.827000	
638	1L9	10.308998	38.174999	48.898998	
639	1L10	23.165001	4.037003	82.015999	
640	1L11	40.097000	59.096001	17.495003	
641	1L12	46.007000	53.085999	100.000000	
642	1L13	47.463001	73.667999	59.306000	
643	1L14	61.581001	54.623001	80.889000	
644	1L15	58.521999	21.970001	0.000000	
645	1L16	61.212002	38.486000	34.361000	
646	1L17	82.820000	81.873001	75.083000	
647	1M1	37.811001	36.140999	86.582001	
648	1M2	23.469002	33.373001	14.761002	
649	1M3	100.000000	65.921997	43.132000	
650	1M4	50.124001	23.574997	31.221001	
651	1M5	62.153999	5.638000	34.051003	
652	1M6	19.614998	20.980003	46.933998	
653	1M7	25.890999	52.070999	100.000000	
654	1M8	96.289299	28.042999	80.500999	
655	1M9	24.246002	50.342999	57.308998	
656	1M10	8.461998	26.144997	100.000000	
657	1M11	46.852001	26.722000	18.637001	
658	1M12	46.799999	31.126999	47.352001	
659	1M13	69.962997	85.968002	79.150002	
660	1M14	75.751999	47.818001	70.711998	
661	1M15	100.000000	28.213997	38.812000	
662	1M16	78.714996	76.884003	66.106003	
663	1M17	46.819000	39.887001	50.008999	
664	1N1	34.264999	59.092999	100.000000	
665	1N2	80.559998	81.066002	86.088997	
666	1N3	13.589996	75.059998	100.000000	
667	1N4	75.418999	21.970001	0.000000	
668	1N5	0.000000	40.880001	38.808998	
669	1N6	39.534000	44.458000	2.898003	
670	1N7	0.000000	45.514000	25.516998	
671	1N8	56.428001	78.734001	60.608002	
672	1N9	77.242996	60.094002	30.069000	
673	1N10	66.415001	16.834000	0.000000	
674	1N11	42.629002	39.070999	20.732002	
675	1N12	100.000000	92.036797	69.464996	
676	1N13	55.875999	20.051003	100.000000	
677	1N14	24.160004	62.401001	14.136002	
678	1N15	54.250000	64.584000	41.855000	
679	1N16	66.520996	76.270004	75.020996	
680	1N17	47.623001	87.935997	99.053703	
681	1O1	36.021999	0.000000	41.084000	
682	1O2	57.158001	29.567001	100.000000	
683	1O3	53.196999	82.011002	70.194000	
684	1O4	99.739433	81.737000	87.903999	
685	1O5	49.939999	38.175999	35.708000	
686	1O6	14.705002	22.424004	72.039001	
687	1O7	28.375000	100.000000	96.589699	
688	1O8	42.421001	2.953003	33.691002	
689	1O9	66.632004	45.919998	19.037003	
690	1O10	54.153000	33.992996	70.836998	
691	1O11	36.073002	47.595001	61.209000	
692	1O12	41.369999	20.242996	8.079002	
693	1O13	89.795998	67.005997	82.528999	
694	1O14	47.855999	2.990997	28.695000	
695	1O15	67.136002	76.876999	69.581001	
696	1O16	77.044998	99.418823	27.333000	
697	1O17	100.000000	59.056999	30.138000	
698	1P1	14.598999	67.701996	8.594002	
699	1P2	53.905998	74.955002	40.685001	
700	1P3	18.023003	12.179001	72.268997	
701	1P4	67.432999	18.390999	58.736000	
702	1P5	71.612000	72.152000	56.460999	
703	1P6	70.943001	68.645996	37.323002	
704	1P7	60.922001	69.505997	58.792999	
705	1P8	22.404999	77.551003	83.171997	
706	1P9	52.664001	30.964996	80.223000	
707	1P10	46.625000	26.100998	83.457001	
708	1P11	27.849998	3.877998	0.696999	
709	1P12	100.000000	32.973000	69.705002	
710	1P13	69.638000	65.293999	80.061996	
711	1P14	69.251999	60.563000	73.690002	
712	1P15	61.722000	0.000000	10.800003	
713	1P16	88.282997	93.114304	100.000000	
714	1P17	81.052002	87.102997	100.000000	
715	1Q1	28.897003	60.436001	68.943001	
716	1Q2	5.528000	44.594002	60.200001	
717	1Q3	67.570999	12.188004	100.000000	
718	1Q4	65.875000	82.957001	68.751999	
719	1Q5	38.487000	0.000000	90.523804	
720	1Q6	100.000000	47.043999	100.000000	
721	1Q7	29.208000	22.175003	51.269001	
722	1Q8	47.688000	82.082001	52.678001	
723	1Q9	100.000000	60.694000	12.606003	
724	1Q10	21.036003	56.553001	52.367001	
725	1Q11	44.625000	7.077003	43.173000	
726	1Q12	0.540001	29.807999	69.098000	
727	1Q13	99.794197	10.240997	11.301003	
728	1Q14	79.736000	95.908302	71.762001	
729	1Q15	3.459999	4.727997	75.604996	
730	1Q16	100.000000	50.875000	63.271999	
731	1Q17	87.288002	65.122002	53.230000	
732	1R1	37.736000	7.632004	23.498001	
733	1R2	81.219002	6.141998	28.574997	
734	1R3	77.854004	79.627998	30.886002	
735	1R4	17.466003	43.231998	76.224998	
736	1R5	67.762001	47.452999	50.379002	
737	1R6	85.254997	78.412003	79.389999	
738	1R7	59.903000	100.000000	75.681000	
739	1R8	100.000000	59.209000	87.160004	
740	1R9	84.713997	69.908005	53.603001	
741	1R10	0.000000	68.026001	67.231003	
742	1R11	40.002998	48.784000	55.338001	
743	1R12	56.768002	41.849998	0.000000	
744	1R13	40.896000	88.401001	85.765999	
745	1R14	4.081001	95.963799	87.563004	
746	1R15	9.098000	11.610001	8.657997	
747	1R16	75.176003	50.985001	46.778000	
748	1R17	79.142998	86.015999	53.838001	
749	1S1	16.997002	47.791000	70.711998	
750	1S2	55.028000	66.236000	14.137001	
751	1S3	77.992996	33.818001	65.694000	
752	1S4	9.357002	60.570000	11.112000	
753	1S5	47.160000	100.000000	71.895996	
754	1S6	85.673004	72.567001	87.431999	
755	1S7	32.313004	23.839996	100.000000	
756	1S8	76.809998	21.916000	43.006001	
757	1S9	40.926998	21.248001	95.720100	
758	1S10	24.839996	25.427002	22.523003	
759	1S11	19.661003	31.609001	73.324997	
760	1S12	69.988998	22.154999	23.038002	
761	1S13	40.186001	37.564999	40.895000	
762	1S14	74.263000	42.223000	16.558998	
763	1S15	31.857002	25.344002	27.875999	
764	1S16	20.014000	88.963997	83.647003	
765	1S17	43.233002	59.912998	45.507000	
766	1T1	67.693001	43.532001	34.268997	
767	1T2	42.381001	55.915001	73.606003	
768	1T3	3.764999	41.393002	9.816002	
769	1T4	10.460999	7.764999	0.000000	
770	1T5	21.260002	7.315002	100.000000	
771	1T6	54.811001	46.834000	16.853996	
772	1T7	81.250999	73.287003	50.583000	
773	1T8	55.936001	44.005001	100.000000	
774	1T9	48.235001	70.023003	63.919998	
775	1T10	38.820999	73.054001	82.831001	
776	1T11	64.923996	2.096001	3.025002	
777	1T12	0.000000	51.430000	73.483002	
778	1T13	87.210999	81.139000	37.278000	
779	1T14	74.379997	47.250000	26.925003	
780	1T15	57.764000	67.001999	28.278000	
781	1T16	64.309998	21.255997	95.795601	
782	1T17	1.102997	31.841003	31.329002	
783	1U1	100.000000	58.146000	51.723000	
784	1U2	7.197998	72.982002	18.848999	
785	1U3	80.337997	100.000000	93.387100	
786	1U4	74.369003	62.280998	84.907997	
787	1U5	38.216000	32.546997	8.971001	
788	1U6	74.433998	96.065498	52.647999	
789	1U7	65.988998	12.150002	27.866997	
790	1U8	77.063004	65.063995	17.492996	
791	1U9	5.555000	47.617001	0.653000	
792	1U10	65.061996	37.126999	59.372002	
793	1U11	35.787003	8.815002	76.003998	
794	1U12	72.931999	78.729996	100.000000	
795	1U13	67.570999	0.861000	33.692001	
796	1U14	85.128998	78.079002	83.171997	
797	1U15	69.367004	82.091003	52.678001	
798	1U16	74.429001	59.203999	91.197098	
799	1U17	17.539001	21.935997	43.006001	
800	1V1	74.729004	84.292999	100.000000	
801	1V2	50.098999	66.563004	65.807999	
802	1V3	59.805000	91.340202	100.000000	
803	1V4	48.291000	59.028000	0.000000	
804	1V5	76.968002	89.107002	72.798004	
805	1V6	87.086998	82.313004	98.342201	
806	1V7	18.487999	24.829002	57.396999	
807	1V8	8.928001	2.932999	0.000000	
808	1V9	60.557999	73.609001	38.259998	
809	1V10	100.000000	58.153000	68.802002	
810	1V11	22.399002	4.525002	45.694000	
811	1V12	60.717999	74.421997	100.000000	
812	1V13	66.037003	89.335999	44.157001	
813	1V14	46.069000	48.625999	75.132996	
814	1V15	40.173000	42.368999	79.068001	
815	1V16	74.691002	60.502998	68.319000	
816	1V17	74.791000	99.118179	44.636002	
817	1W1	6.630997	59.841999	68.803001	
818	1W2	58.095001	58.261002	19.488998	
819	1W3	60.951000	29.498001	16.987999	
820	1W4	21.073997	63.279999	66.367004	
821	1W5	6.809998	0.000000	53.106998	
822	1W6	100.000000	80.263000	99.351067	
823	1W7	24.664001	22.043999	74.852997	
824	1W8	52.661999	13.022003	22.408997	
825	1W9	77.772003	100.000000	77.151001	
826	1W10	11.842003	27.346001	12.084999	
827	1W11	7.884003	55.205002	58.804001	
828	1W12	27.514999	76.330002	100.000000	
829	1W13	43.622002	90.529297	51.219002	
830	1W14	8.778999	19.105003	8.640999	
831	1W15	32.556000	16.152000	10.809998	
832	1W16	49.476002	13.901001	9.524002	
833	1W17	61.921001	25.394997	64.977997	
834	1X1	58.930000	55.421001	30.259003	
835	1X2	12.024002	27.882004	19.263000	
836	1X3	100.000000	34.633003	35.709000	
837	1X4	100.000000	81.892998	48.773998	
838	1X5	40.922001	42.942001	51.646000	
839	1X6	51.183998	34.561996	100.000000	
840	1X7	54.994999	19.068001	48.174999	
841	1X8	13.741997	44.473000	2.898003	
842	1X9	75.586998	43.973999	72.197998	
843	1X10	4.274002	66.949005	37.185001	
844	1X11	40.132000	47.354000	100.000000	
845	1X12	33.606003	85.380997	52.505001	
846	1X13	54.500999	60.604000	82.462997	
847	1X14	100.000000	45.098999	34.422997	
848	1X15	3.119003	96.272400	56.339001	
849	1X16	83.957001	75.209999	87.349998	
850	1X17	76.714996	92.938004	99.342773	
851	1Y1	76.879997	34.559998	100.000000	
852	1Y2	56.069000	100.000000	88.513000	
853	1Y3	95.156303	37.985001	65.499001	
854	1Y4	60.867001	33.077003	33.786003	
855	1Y5	20.936996	3.901001	11.203003	
856	1Y6	14.853996	44.841999	26.928001	
857	1Y7	41.320999	18.440002	22.492996	
858	1Y8	5.940002	71.035995	83.613998	
859	1Y9	90.027702	85.087997	82.117004	
860	1Y10	100.000000	67.714996	78.596001	
861	1Y11	38.585999	12.849998	1.485001	
862	1Y12	67.182999	100.000000	60.902000	
863	1Y13	19.549004	28.374001	42.198002	
864	1Y14	10.731003	56.730000	75.048004	
865	1Y15	79.461998	61.299999	55.648998	
866	1Y16	29.719002	47.749001	78.986000	
867	1Y17	100.000000	72.328003	9.873001	
868	1Z1	44.646999	21.255997	49.109001	
869	1Z2	49.221001	16.528999	18.275002	
870	1Z3	22.646004	44.592999	37.344002	
871	1Z4	36.216999	56.674000	35.532997	
872	1Z5	74.234001	42.879002	1.463997	
873	1Z6	23.582001	56.405998	0.000000	
874	1Z7	16.525002	14.888000	29.528000	
875	1Z8	79.688004	19.443001	27.874001	
876	1Z9	23.172997	96.403198	65.518005	
877	1Z10	54.400002	58.651001	93.748596	
878	1Z11	27.308998	32.054001	40.681999	
879	1Z12	27.444000	38.352001	24.571999	
880	1Z13	87.152000	46.639000	49.570999	
881	1Z14	58.050999	86.069000	26.885002	
882	1Z15	28.516998	66.921005	65.731003	
883	1Z16	79.690002	56.897999	62.276001	
884	1Z17	24.792000	47.553001	14.121002	
885	2A1	71.640999	84.390999	29.620003	
886	2A2	48.195000	34.690002	77.341003	
887	2A3	85.653000	53.695000	70.438995	
888	2A4	44.613998	28.741997	58.153000	
889	2A5	76.007004	21.100998	100.000000	
890	2A6	8.442001	4.348999	35.563004	
891	2A7	49.500999	79.490997	77.567001	
892	2A8	79.846001	66.716003	35.723999	
893	2A9	33.600998	72.168999	56.460999	
894	2A10	74.122002	3.045998	42.662998	
895	2A11	7.987000	47.450001	50.379002	
896	2A12	100.000000	100.000000	13.138000	
897	2A13	60.743000	4.776001	100.000000	
898	2A14	82.905998	32.545998	9.321999	
899	2A15	25.547997	64.858002	72.802002	
900	2A16	62.162998	0.000000	53.117001	
901	2A17	61.431999	39.183998	51.647999	
902	2B1	48.436001	3.902000	11.203003	
903	2B2	28.609001	94.123802	10.065002	
904	2B3	0.000000	46.145000	100.000000	
905	2B4	20.984001	24.936996	0.000000	
906	2B5	70.139999	56.039001	100.000000	
907	2B6	23.130997	34.692001	61.055000	
908	2B7	100.000000	11.845001	0.000000	
909	2B8	2.238998	30.103996	16.532997	
910	2B9	5.014999	35.820000	53.937000	
911	2B10	74.126999	77.248001	77.760002	
912	2B11	75.473999	50.882000	59.737000	
913	2B12	43.214001	15.808998	74.168999	
914	2B13	45.407001	50.792000	63.279999	
915	2B14	2.295998	41.366001	100.000000	
916	2B15	27.796997	39.661999	45.027000	
917	2B16	36.018002	8.615997	100.000000	
918	2B17	47.458000	47.551998	66.970001	
919	2C1	87.620003	16.954002	10.058998	
920	2C2	29.035004	88.321999	85.996002	
921	2C3	9.029999	53.020000	16.209999	
922	2C4	100.000000	72.488998	58.838001	
923	2C5	26.856003	73.889000	72.735001	
924	2C6	67.436005	50.202000	10.894997	
925	2C7	53.797001	41.063000	59.741001	
926	2C8	22.070999	68.115997	28.315002	
927	2C9	74.523003	66.275002	100.000000	
928	2C10	10.410004	64.757004	27.897003	
929	2C11	88.598999	79.704002	69.958000	
930	2C12	49.936001	81.761002	16.468002	
931	2C13	31.303001	50.591000	69.245003	
932	2C14	31.320999	1.474998	8.077003	
933	2C15	8.274002	55.778999	37.636002	
934	2C16	59.241001	100.000000	80.778999	
935	2C17	61.373001	58.341999	48.421001	
936	2D1	14.498001	32.828003	34.250999	
937	2D2	11.629997	34.759003	4.999001	
938	2D3	67.317001	27.512001	23.290001	
939	2D4	39.061001	17.650002	53.061001	
940	2D5	32.953003	21.237000	39.847000	
941	2D6	9.419998	44.080002	35.112000	
942	2D7	40.410000	47.055000	42.563999	
943	2D8	100.000000	70.735001	32.299004	
944	2D9	57.221001	79.498001	86.087997	
945	2D10	75.512001	30.086998	100.000000	
946	2D11	19.401001	74.860001	40.000999	
947	2D12	28.138000	44.539001	60.200001	
948	2D13	32.277000	6.178001	28.574997	
949	2D14	65.658997	70.073997	4.101997	
950	2D15	51.412998	46.703999	43.717999	
951	2D16	67.744995	72.773003	18.848999	
952	2D17	71.324997	66.558998	65.807999	
953	2E1	74.104004	34.274002	19.483002	
954	2E2	41.599998	29.304001	18.938004	
955	2E3	81.696999	100.000000	88.512001	
956	2E4	75.429001	16.528999	18.275002	
957	2E5	66.302002	34.690002	77.341003	
958	2E6	0.000000	100.000000	10.001999	
959	2E7	62.567001	87.298004	85.971001	
960	2E8	45.825001	34.775002	4.999001	
961	2E9	67.028999	29.231003	18.938004	
962	2E10	39.549000	24.419998	0.000000	
963	2E11	12.845001	44.015999	46.426998	
964	2E12	76.583000	79.703003	59.625000	
965	2E13	77.543999	60.094002	38.792000	
966	2E14	0.000000	51.465000	21.601997	
967	2E15	59.077999	86.175003	60.146999	
968	2E16	100.000000	64.604996	70.117996	
969	2E17	58.444000	54.964001	100.000000	
970	2F1	85.671997	88.926003	18.293999	
971	2F2	53.924999	31.791000	40.361000	
972	2F3	49.058998	79.555000	28.475998	
973	2F4	53.631001	85.902000	99.054817	
974	2F5	21.560997	1.126999	36.270000	
975	2F6	83.681999	4.677002	100.000000	
976	2F7	53.206001	43.074001	31.502998	
977	2F8	100.000000	75.589996	48.554001	
978	2F9	27.794998	50.028999	33.503998	
979	2F10	14.499001	61.873001	53.007999	
980	2F11	36.556999	77.324997	46.477001	
981	2F12	60.289001	27.921997	85.259003	
982	2F13	68.148003	43.901001	42.237000	
983	2F14	44.951000	36.485001	70.836998	
984	2F15	36.292000	59.425999	61.428001	
985	2F16	24.698997	40.313000	8.073997	
986	2F17	76.227997	66.272995	83.708000	
END_DATA
